pre-aulas/aula03/simulation/qsim/AulaDelta3.msim.vcd
$comment
	File created using the following command:
		vcd file AulaDelta3.msim.vcd -direction
$end
$date
	Thu Aug 11 15:32:27 2022
$end
$version
	Questa Intel Starter FPGA Edition Version 2021.2
$end
$timescale
	1ps
$end

$scope module auladelta3_vhd_vec_tst $end
$var wire 1 ! CLOCK_50 $end
$var wire 1 " HEX0 [6] $end
$var wire 1 # HEX0 [5] $end
$var wire 1 $ HEX0 [4] $end
$var wire 1 % HEX0 [3] $end
$var wire 1 & HEX0 [2] $end
$var wire 1 ' HEX0 [1] $end
$var wire 1 ( HEX0 [0] $end
$var wire 1 ) HEX1 [6] $end
$var wire 1 * HEX1 [5] $end
$var wire 1 + HEX1 [4] $end
$var wire 1 , HEX1 [3] $end
$var wire 1 - HEX1 [2] $end
$var wire 1 . HEX1 [1] $end
$var wire 1 / HEX1 [0] $end
$var wire 1 0 HEX2 [6] $end
$var wire 1 1 HEX2 [5] $end
$var wire 1 2 HEX2 [4] $end
$var wire 1 3 HEX2 [3] $end
$var wire 1 4 HEX2 [2] $end
$var wire 1 5 HEX2 [1] $end
$var wire 1 6 HEX2 [0] $end
$var wire 1 7 HEX3 [6] $end
$var wire 1 8 HEX3 [5] $end
$var wire 1 9 HEX3 [4] $end
$var wire 1 : HEX3 [3] $end
$var wire 1 ; HEX3 [2] $end
$var wire 1 < HEX3 [1] $end
$var wire 1 = HEX3 [0] $end
$var wire 1 > KEY [3] $end
$var wire 1 ? KEY [2] $end
$var wire 1 @ KEY [1] $end
$var wire 1 A KEY [0] $end
$var wire 1 B LEDR [9] $end
$var wire 1 C LEDR [8] $end
$var wire 1 D LEDR [7] $end
$var wire 1 E LEDR [6] $end
$var wire 1 F LEDR [5] $end
$var wire 1 G LEDR [4] $end
$var wire 1 H LEDR [3] $end
$var wire 1 I LEDR [2] $end
$var wire 1 J LEDR [1] $end
$var wire 1 K LEDR [0] $end
$var wire 1 L SW [9] $end
$var wire 1 M SW [8] $end
$var wire 1 N SW [7] $end
$var wire 1 O SW [6] $end
$var wire 1 P SW [5] $end
$var wire 1 Q SW [4] $end
$var wire 1 R SW [3] $end
$var wire 1 S SW [2] $end
$var wire 1 T SW [1] $end
$var wire 1 U SW [0] $end

$scope module i1 $end
$var wire 1 V devoe $end
$var wire 1 W devclrn $end
$var wire 1 X devpor $end
$var wire 1 Y ww_devoe $end
$var wire 1 Z ww_devclrn $end
$var wire 1 [ ww_devpor $end
$var wire 1 \ ww_CLOCK_50 $end
$var wire 1 ] ww_SW [9] $end
$var wire 1 ^ ww_SW [8] $end
$var wire 1 _ ww_SW [7] $end
$var wire 1 ` ww_SW [6] $end
$var wire 1 a ww_SW [5] $end
$var wire 1 b ww_SW [4] $end
$var wire 1 c ww_SW [3] $end
$var wire 1 d ww_SW [2] $end
$var wire 1 e ww_SW [1] $end
$var wire 1 f ww_SW [0] $end
$var wire 1 g ww_KEY [3] $end
$var wire 1 h ww_KEY [2] $end
$var wire 1 i ww_KEY [1] $end
$var wire 1 j ww_KEY [0] $end
$var wire 1 k ww_HEX0 [6] $end
$var wire 1 l ww_HEX0 [5] $end
$var wire 1 m ww_HEX0 [4] $end
$var wire 1 n ww_HEX0 [3] $end
$var wire 1 o ww_HEX0 [2] $end
$var wire 1 p ww_HEX0 [1] $end
$var wire 1 q ww_HEX0 [0] $end
$var wire 1 r ww_HEX1 [6] $end
$var wire 1 s ww_HEX1 [5] $end
$var wire 1 t ww_HEX1 [4] $end
$var wire 1 u ww_HEX1 [3] $end
$var wire 1 v ww_HEX1 [2] $end
$var wire 1 w ww_HEX1 [1] $end
$var wire 1 x ww_HEX1 [0] $end
$var wire 1 y ww_HEX2 [6] $end
$var wire 1 z ww_HEX2 [5] $end
$var wire 1 { ww_HEX2 [4] $end
$var wire 1 | ww_HEX2 [3] $end
$var wire 1 } ww_HEX2 [2] $end
$var wire 1 ~ ww_HEX2 [1] $end
$var wire 1 !! ww_HEX2 [0] $end
$var wire 1 "! ww_HEX3 [6] $end
$var wire 1 #! ww_HEX3 [5] $end
$var wire 1 $! ww_HEX3 [4] $end
$var wire 1 %! ww_HEX3 [3] $end
$var wire 1 &! ww_HEX3 [2] $end
$var wire 1 '! ww_HEX3 [1] $end
$var wire 1 (! ww_HEX3 [0] $end
$var wire 1 )! ww_LEDR [9] $end
$var wire 1 *! ww_LEDR [8] $end
$var wire 1 +! ww_LEDR [7] $end
$var wire 1 ,! ww_LEDR [6] $end
$var wire 1 -! ww_LEDR [5] $end
$var wire 1 .! ww_LEDR [4] $end
$var wire 1 /! ww_LEDR [3] $end
$var wire 1 0! ww_LEDR [2] $end
$var wire 1 1! ww_LEDR [1] $end
$var wire 1 2! ww_LEDR [0] $end
$var wire 1 3! \CLOCK_50~input_o\ $end
$var wire 1 4! \KEY[1]~input_o\ $end
$var wire 1 5! \KEY[2]~input_o\ $end
$var wire 1 6! \KEY[3]~input_o\ $end
$var wire 1 7! \SW[0]~input_o\ $end
$var wire 1 8! \SW[1]~input_o\ $end
$var wire 1 9! \KEY[0]~input_o\ $end
$var wire 1 :! \KEY[0]~inputCLKENA0_outclk\ $end
$var wire 1 ;! \Contador|DOUT[0]~2_combout\ $end
$var wire 1 <! \Contador|DOUT[0]~DUPLICATE_q\ $end
$var wire 1 =! \Somador|Add0~0_combout\ $end
$var wire 1 >! \Contador|DOUT[2]~1_combout\ $end
$var wire 1 ?! \Contador|DOUT[1]~DUPLICATE_q\ $end
$var wire 1 @! \Contador|DOUT[3]~0_combout\ $end
$var wire 1 A! \DHEX0|rascSaida7seg[0]~0_combout\ $end
$var wire 1 B! \DHEX0|saida7seg~0_combout\ $end
$var wire 1 C! \Contador|DOUT[2]~DUPLICATE_q\ $end
$var wire 1 D! \DHEX0|saida7seg~1_combout\ $end
$var wire 1 E! \DHEX0|saida7seg~2_combout\ $end
$var wire 1 F! \DHEX0|rascSaida7seg[3]~1_combout\ $end
$var wire 1 G! \DHEX0|saida7seg~3_combout\ $end
$var wire 1 H! \DHEX0|rascSaida7seg[4]~2_combout\ $end
$var wire 1 I! \DHEX0|saida7seg~4_combout\ $end
$var wire 1 J! \DHEX0|rascSaida7seg[5]~3_combout\ $end
$var wire 1 K! \DHEX0|saida7seg~5_combout\ $end
$var wire 1 L! \DHEX0|saida7seg~6_combout\ $end
$var wire 1 M! \DHEX1|saida7seg~0_combout\ $end
$var wire 1 N! \DHEX1|saida7seg~1_combout\ $end
$var wire 1 O! \DHEX1|saida7seg~2_combout\ $end
$var wire 1 P! \DHEX1|saida7seg~3_combout\ $end
$var wire 1 Q! \DHEX1|saida7seg~4_combout\ $end
$var wire 1 R! \DHEX1|saida7seg~5_combout\ $end
$var wire 1 S! \DHEX1|saida7seg~6_combout\ $end
$var wire 1 T! \DHEX2|saida7seg~0_combout\ $end
$var wire 1 U! \DHEX2|saida7seg~1_combout\ $end
$var wire 1 V! \DHEX2|saida7seg~2_combout\ $end
$var wire 1 W! \DHEX2|saida7seg~3_combout\ $end
$var wire 1 X! \DHEX2|saida7seg~4_combout\ $end
$var wire 1 Y! \DHEX2|saida7seg~5_combout\ $end
$var wire 1 Z! \DHEX2|saida7seg~6_combout\ $end
$var wire 1 [! \DHEX3|saida7seg~0_combout\ $end
$var wire 1 \! \DHEX3|saida7seg~1_combout\ $end
$var wire 1 ]! \DHEX3|saida7seg~2_combout\ $end
$var wire 1 ^! \DHEX3|saida7seg~3_combout\ $end
$var wire 1 _! \DHEX3|saida7seg~4_combout\ $end
$var wire 1 `! \DHEX3|saida7seg~5_combout\ $end
$var wire 1 a! \DHEX3|saida7seg~6_combout\ $end
$var wire 1 b! \SW[2]~input_o\ $end
$var wire 1 c! \SW[3]~input_o\ $end
$var wire 1 d! \SW[4]~input_o\ $end
$var wire 1 e! \SW[5]~input_o\ $end
$var wire 1 f! \SW[6]~input_o\ $end
$var wire 1 g! \SW[7]~input_o\ $end
$var wire 1 h! \SW[8]~input_o\ $end
$var wire 1 i! \SW[9]~input_o\ $end
$var wire 1 j! \Contador|DOUT\ [3] $end
$var wire 1 k! \Contador|DOUT\ [2] $end
$var wire 1 l! \Contador|DOUT\ [1] $end
$var wire 1 m! \Contador|DOUT\ [0] $end
$var wire 1 n! \ALT_INV_SW[1]~input_o\ $end
$var wire 1 o! \DHEX0|ALT_INV_rascSaida7seg[5]~3_combout\ $end
$var wire 1 p! \Contador|ALT_INV_DOUT\ [3] $end
$var wire 1 q! \Contador|ALT_INV_DOUT\ [2] $end
$var wire 1 r! \Contador|ALT_INV_DOUT\ [1] $end
$var wire 1 s! \Contador|ALT_INV_DOUT\ [0] $end
$var wire 1 t! \DHEX0|ALT_INV_rascSaida7seg[3]~1_combout\ $end
$var wire 1 u! \ALT_INV_SW[0]~input_o\ $end
$var wire 1 v! \Contador|ALT_INV_DOUT[0]~DUPLICATE_q\ $end
$var wire 1 w! \DHEX0|ALT_INV_rascSaida7seg[4]~2_combout\ $end
$var wire 1 x! \DHEX0|ALT_INV_rascSaida7seg[0]~0_combout\ $end
$var wire 1 y! \Contador|ALT_INV_DOUT[2]~DUPLICATE_q\ $end
$var wire 1 z! \Contador|ALT_INV_DOUT[1]~DUPLICATE_q\ $end
$upscope $end
$upscope $end
$enddefinitions $end
#0
$dumpvars
x!
1V
1W
1X
1Y
1Z
1[
x\
x3!
x4!
x5!
x6!
07!
08!
19!
1:!
1;!
0<!
0=!
0>!
0?!
0@!
0A!
0B!
0C!
0D!
0E!
0F!
0G!
0H!
0I!
0J!
0K!
1L!
1M!
1N!
1O!
1P!
1Q!
1R!
1S!
1T!
1U!
1V!
1W!
1X!
1Y!
1Z!
1[!
1\!
1]!
1^!
1_!
1`!
1a!
xb!
xc!
xd!
xe!
xf!
xg!
xh!
xi!
1n!
1o!
1t!
1u!
1v!
1w!
1x!
1y!
1z!
x>
x?
x@
1A
xL
xM
xN
xO
xP
xQ
xR
xS
0T
0U
x]
x^
x_
x`
xa
xb
xc
xd
0e
0f
xg
xh
xi
1j
1k
0l
0m
0n
0o
0p
0q
1r
1s
1t
1u
1v
1w
1x
1y
1z
1{
1|
1}
1~
1!!
1"!
1#!
1$!
1%!
1&!
1'!
1(!
x)!
x*!
x+!
x,!
x-!
x.!
x/!
x0!
01!
02!
0j!
0k!
0l!
0m!
1p!
1q!
1r!
1s!
1"
0#
0$
0%
0&
0'
0(
1)
1*
1+
1,
1-
1.
1/
10
11
12
13
14
15
16
17
18
19
1:
1;
1<
1=
xB
xC
xD
xE
xF
xG
xH
xI
0J
0K
$end
#10000
0A
0j
09!
0:!
#20000
1A
1j
19!
1:!
1m!
1<!
0s!
0v!
1=!
1A!
0;!
1F!
1H!
1J!
0x!
0t!
0w!
0o!
1K!
1I!
1G!
1B!
1q
1n
1m
1l
1(
1%
1$
1#
#30000
0A
0j
09!
0:!
#40000
1A
1j
19!
1:!
0m!
0<!
1l!
1?!
1s!
1v!
0r!
0z!
0A!
1E!
1;!
0F!
0H!
0L!
1x!
1t!
1w!
0I!
0G!
0B!
0k
1o
1&
0"
0q
0n
0m
0(
0%
0$
#50000
0A
0j
09!
0:!
#60000
1A
1j
19!
1:!
1m!
1<!
0s!
0v!
0=!
1>!
0E!
0;!
1H!
0w!
1I!
0o
0&
1m
1$
#70000
0A
0j
09!
0:!
#80000
1A
1U
1j
1f
17!
19!
1:!
0u!
0m!
0<!
0l!
1k!
0?!
1C!
1B!
1D!
1E!
1G!
1L!
0M!
0N!
0O!
0P!
0S!
1s!
1v!
1r!
0q!
1z!
0y!
12!
1A!
1;!
1F!
0J!
1K
0x!
0t!
1o!
0r
0u
0v
0w
0x
1k
1n
1o
1p
1q
0R!
1P!
1M!
0/
0.
0-
0,
0)
1(
1'
1&
1%
1"
1x
1u
0s
1/
1,
0*
#90000
0A
0j
09!
0:!
#100000
1A
1j
19!
1:!
1m!
1<!
0s!
0v!
1=!
0A!
1N!
0;!
0F!
1x!
1t!
0P!
0M!
1w
1.
0x
0u
0/
0,
#110000
0A
0j
09!
0:!
#120000
1A
1j
19!
1:!
0m!
0<!
1l!
1?!
1s!
1v!
0r!
0z!
1;!
0H!
1w!
0Q!
0t
0+
#130000
0A
0j
09!
0:!
#140000
1A
1j
19!
1:!
1m!
1<!
0s!
0v!
0=!
0>!
1@!
0N!
1S!
0;!
1F!
1H!
1J!
0t!
0w!
0o!
1R!
1Q!
1P!
1r
0w
0.
1)
1u
1t
1s
1,
1+
1*
#150000
0A
0j
09!
0:!
#160000
1A
0U
1T
1j
0f
1e
18!
07!
19!
1:!
0n!
1u!
0m!
0<!
0l!
0k!
0?!
1j!
0C!
1M!
1N!
1O!
0T!
0U!
0V!
1s!
1v!
1r!
1q!
1z!
0p!
1y!
02!
11!
0Z!
1;!
0F!
0H!
0J!
0K
1J
1t!
1w!
1o!
0}
0~
0!!
1v
1w
1x
0Y!
0X!
0W!
06
05
04
1/
1.
1-
0y
00
0|
0{
0z
03
02
01
#170000
0A
0j
09!
0:!
#180000
1A
1j
19!
1:!
1m!
1<!
0s!
0v!
1=!
0;!
1H!
0w!
1X!
1{
12
#190000
0A
0j
09!
0:!
#200000
1A
1j
19!
1:!
0m!
0<!
1l!
1?!
1s!
1v!
0r!
0z!
1;!
1F!
0H!
0t!
1w!
0X!
1W!
1|
0{
13
02
#210000
0A
0j
09!
0:!
#220000
1A
1j
19!
1:!
1m!
1<!
0s!
0v!
0=!
1>!
1A!
1U!
0;!
0F!
0x!
1t!
0W!
1T!
1~
15
1!!
0|
16
03
#230000
0A
0j
09!
0:!
#240000
1A
1U
1j
1f
17!
19!
1:!
0u!
0m!
0<!
0l!
1k!
0?!
1C!
1V!
1W!
1X!
1Y!
1Z!
0]!
0^!
0_!
0`!
0a!
1s!
1v!
1r!
0q!
1z!
0y!
12!
0A!
1;!
1]!
1a!
1K
1x!
0"!
0#!
0$!
0%!
0&!
1y
1z
1{
1|
1}
0[!
0;
0:
09
08
07
14
13
12
11
10
1"!
1&!
1;
17
0(!
0=
#250000
0A
0j
09!
0:!
#260000
1A
1j
19!
1:!
1m!
1<!
0s!
0v!
1=!
1A!
0;!
1J!
0\!
0]!
0a!
0x!
0o!
1`!
1[!
0"!
0&!
0'!
0<
0;
07
1(!
1#!
1=
18
#270000
0A
0j
09!
0:!
#280000
1A
1j
19!
1:!
0m!
0<!
1l!
1?!
1s!
1v!
0r!
0z!
0A!
1;!
0J!
1\!
1]!
1x!
1o!
0`!
0[!
1&!
1'!
1<
1;
0(!
0#!
0=
08
#290000
0A
0j
09!
0:!
#300000
1A
1j
19!
1:!
1m!
1<!
0s!
0v!
0=!
0>!
0@!
0;!
1F!
0t!
1^!
1%!
1:
#310000
0A
0j
09!
0:!
#320000
1A
0U
0T
1j
0f
0e
08!
07!
19!
1:!
1n!
1u!
0m!
0<!
0l!
0k!
0?!
0j!
0C!
0B!
0I!
0K!
0L!
1[!
1_!
1`!
1a!
1s!
1v!
1r!
1q!
1z!
1p!
1y!
02!
01!
0D!
0E!
1;!
0F!
1L!
0K
0J
1t!
1"!
1#!
1$!
1(!
0k
0l
0m
0q
0G!
1=
19
18
17
0(
0$
0#
0"
1k
0o
0p
0'
0&
1"
0n
0%
#330000
0A
0j
09!
0:!
#340000
1A
1j
19!
1:!
1m!
1<!
0s!
0v!
1=!
1A!
0;!
1F!
1H!
1J!
0x!
0t!
0w!
0o!
1K!
1I!
1G!
1B!
1q
1n
1m
1l
1(
1%
1$
1#
#350000
0A
0j
09!
0:!
#360000
1A
1j
19!
1:!
0m!
0<!
1l!
1?!
1s!
1v!
0r!
0z!
0A!
1E!
1;!
0F!
0H!
0L!
1x!
1t!
1w!
0I!
0G!
0B!
0k
1o
1&
0"
0q
0n
0m
0(
0%
0$
#370000
0A
0j
09!
0:!
#380000
1A
1j
19!
1:!
1m!
1<!
0s!
0v!
0=!
1>!
0E!
0;!
1H!
0w!
1I!
0o
0&
1m
1$
#390000
0A
0j
09!
0:!
#400000
1A
1U
1j
1f
17!
19!
1:!
0u!
0m!
0<!
0l!
1k!
0?!
1C!
1B!
1D!
1E!
1G!
1L!
0M!
0N!
0O!
0P!
0S!
1s!
1v!
1r!
0q!
1z!
0y!
12!
1A!
1;!
1F!
0J!
1K
0x!
0t!
1o!
0r
0u
0v
0w
0x
1k
1n
1o
1p
1q
0R!
1P!
1M!
0/
0.
0-
0,
0)
1(
1'
1&
1%
1"
1x
1u
0s
1/
1,
0*
#410000
0A
0j
09!
0:!
#420000
1A
1j
19!
1:!
1m!
1<!
0s!
0v!
1=!
0A!
1N!
0;!
0F!
1x!
1t!
0P!
0M!
1w
1.
0x
0u
0/
0,
#430000
0A
0j
09!
0:!
#440000
1A
1j
19!
1:!
0m!
0<!
1l!
1?!
1s!
1v!
0r!
0z!
1;!
0H!
1w!
0Q!
0t
0+
#450000
0A
0j
09!
0:!
#460000
1A
1j
19!
1:!
1m!
1<!
0s!
0v!
0=!
0>!
1@!
0N!
1S!
0;!
1F!
1H!
1J!
0t!
0w!
0o!
1R!
1Q!
1P!
1r
0w
0.
1)
1u
1t
1s
1,
1+
1*
#470000
0A
0j
09!
0:!
#480000
1A
0U
1T
1j
0f
1e
18!
07!
19!
1:!
0n!
1u!
0m!
0<!
0l!
0k!
0?!
1j!
0C!
1M!
1N!
1O!
0T!
0U!
0V!
1s!
1v!
1r!
1q!
1z!
0p!
1y!
02!
11!
0Z!
1;!
0F!
0H!
0J!
0K
1J
1t!
1w!
1o!
0}
0~
0!!
1v
1w
1x
0Y!
0X!
0W!
06
05
04
1/
1.
1-
0y
00
0|
0{
0z
03
02
01
#490000
0A
0j
09!
0:!
#500000
1A
1j
19!
1:!
1m!
1<!
0s!
0v!
1=!
0;!
1H!
0w!
1X!
1{
12
#510000
0A
0j
09!
0:!
#520000
1A
1j
19!
1:!
0m!
0<!
1l!
1?!
1s!
1v!
0r!
0z!
1;!
1F!
0H!
0t!
1w!
0X!
1W!
1|
0{
13
02
#530000
0A
0j
09!
0:!
#540000
1A
1j
19!
1:!
1m!
1<!
0s!
0v!
0=!
1>!
1A!
1U!
0;!
0F!
0x!
1t!
0W!
1T!
1~
15
1!!
0|
16
03
#550000
0A
0j
09!
0:!
#560000
1A
1U
1j
1f
17!
19!
1:!
0u!
0m!
0<!
0l!
1k!
0?!
1C!
1V!
1W!
1X!
1Y!
1Z!
0]!
0^!
0_!
0`!
0a!
1s!
1v!
1r!
0q!
1z!
0y!
12!
0A!
1;!
1]!
1a!
1K
1x!
0"!
0#!
0$!
0%!
0&!
1y
1z
1{
1|
1}
0[!
0;
0:
09
08
07
14
13
12
11
10
1"!
1&!
1;
17
0(!
0=
#570000
0A
0j
09!
0:!
#580000
1A
1j
19!
1:!
1m!
1<!
0s!
0v!
1=!
1A!
0;!
1J!
0\!
0]!
0a!
0x!
0o!
1`!
1[!
0"!
0&!
0'!
0<
0;
07
1(!
1#!
1=
18
#590000
0A
0j
09!
0:!
#600000
1A
1j
19!
1:!
0m!
0<!
1l!
1?!
1s!
1v!
0r!
0z!
0A!
1;!
0J!
1\!
1]!
1x!
1o!
0`!
0[!
1&!
1'!
1<
1;
0(!
0#!
0=
08
#610000
0A
0j
09!
0:!
#620000
1A
1j
19!
1:!
1m!
1<!
0s!
0v!
0=!
0>!
0@!
0;!
1F!
0t!
1^!
1%!
1:
#630000
0A
0j
09!
0:!
#640000
1A
0U
0T
1j
0f
0e
08!
07!
19!
1:!
1n!
1u!
0m!
0<!
0l!
0k!
0?!
0j!
0C!
0B!
0I!
0K!
0L!
1[!
1_!
1`!
1a!
1s!
1v!
1r!
1q!
1z!
1p!
1y!
02!
01!
0D!
0E!
1;!
0F!
1L!
0K
0J
1t!
1"!
1#!
1$!
1(!
0k
0l
0m
0q
0G!
1=
19
18
17
0(
0$
0#
0"
1k
0o
0p
0'
0&
1"
0n
0%
#650000
0A
0j
09!
0:!
#660000
1A
1j
19!
1:!
1m!
1<!
0s!
0v!
1=!
1A!
0;!
1F!
1H!
1J!
0x!
0t!
0w!
0o!
1K!
1I!
1G!
1B!
1q
1n
1m
1l
1(
1%
1$
1#
#670000
0A
0j
09!
0:!
#680000
1A
1j
19!
1:!
0m!
0<!
1l!
1?!
1s!
1v!
0r!
0z!
0A!
1E!
1;!
0F!
0H!
0L!
1x!
1t!
1w!
0I!
0G!
0B!
0k
1o
1&
0"
0q
0n
0m
0(
0%
0$
#690000
0A
0j
09!
0:!
#700000
1A
1j
19!
1:!
1m!
1<!
0s!
0v!
0=!
1>!
0E!
0;!
1H!
0w!
1I!
0o
0&
1m
1$
#710000
0A
0j
09!
0:!
#720000
1A
1U
1j
1f
17!
19!
1:!
0u!
0m!
0<!
0l!
1k!
0?!
1C!
1B!
1D!
1E!
1G!
1L!
0M!
0N!
0O!
0P!
0S!
1s!
1v!
1r!
0q!
1z!
0y!
12!
1A!
1;!
1F!
0J!
1K
0x!
0t!
1o!
0r
0u
0v
0w
0x
1k
1n
1o
1p
1q
0R!
1P!
1M!
0/
0.
0-
0,
0)
1(
1'
1&
1%
1"
1x
1u
0s
1/
1,
0*
#730000
0A
0j
09!
0:!
#740000
1A
1j
19!
1:!
1m!
1<!
0s!
0v!
1=!
0A!
1N!
0;!
0F!
1x!
1t!
0P!
0M!
1w
1.
0x
0u
0/
0,
#750000
0A
0j
09!
0:!
#760000
1A
1j
19!
1:!
0m!
0<!
1l!
1?!
1s!
1v!
0r!
0z!
1;!
0H!
1w!
0Q!
0t
0+
#770000
0A
0j
09!
0:!
#780000
1A
1j
19!
1:!
1m!
1<!
0s!
0v!
0=!
0>!
1@!
0N!
1S!
0;!
1F!
1H!
1J!
0t!
0w!
0o!
1R!
1Q!
1P!
1r
0w
0.
1)
1u
1t
1s
1,
1+
1*
#790000
0A
0j
09!
0:!
#800000
1A
0U
1T
1j
0f
1e
18!
07!
19!
1:!
0n!
1u!
0m!
0<!
0l!
0k!
0?!
1j!
0C!
1M!
1N!
1O!
0T!
0U!
0V!
1s!
1v!
1r!
1q!
1z!
0p!
1y!
02!
11!
0Z!
1;!
0F!
0H!
0J!
0K
1J
1t!
1w!
1o!
0}
0~
0!!
1v
1w
1x
0Y!
0X!
0W!
06
05
04
1/
1.
1-
0y
00
0|
0{
0z
03
02
01
#810000
0A
0j
09!
0:!
#820000
1A
1j
19!
1:!
1m!
1<!
0s!
0v!
1=!
0;!
1H!
0w!
1X!
1{
12
#830000
0A
0j
09!
0:!
#840000
1A
1j
19!
1:!
0m!
0<!
1l!
1?!
1s!
1v!
0r!
0z!
1;!
1F!
0H!
0t!
1w!
0X!
1W!
1|
0{
13
02
#850000
0A
0j
09!
0:!
#860000
1A
1j
19!
1:!
1m!
1<!
0s!
0v!
0=!
1>!
1A!
1U!
0;!
0F!
0x!
1t!
0W!
1T!
1~
15
1!!
0|
16
03
#870000
0A
0j
09!
0:!
#880000
1A
1U
1j
1f
17!
19!
1:!
0u!
0m!
0<!
0l!
1k!
0?!
1C!
1V!
1W!
1X!
1Y!
1Z!
0]!
0^!
0_!
0`!
0a!
1s!
1v!
1r!
0q!
1z!
0y!
12!
0A!
1;!
1]!
1a!
1K
1x!
0"!
0#!
0$!
0%!
0&!
1y
1z
1{
1|
1}
0[!
0;
0:
09
08
07
14
13
12
11
10
1"!
1&!
1;
17
0(!
0=
#890000
0A
0j
09!
0:!
#900000
1A
1j
19!
1:!
1m!
1<!
0s!
0v!
1=!
1A!
0;!
1J!
0\!
0]!
0a!
0x!
0o!
1`!
1[!
0"!
0&!
0'!
0<
0;
07
1(!
1#!
1=
18
#910000
0A
0j
09!
0:!
#920000
1A
1j
19!
1:!
0m!
0<!
1l!
1?!
1s!
1v!
0r!
0z!
0A!
1;!
0J!
1\!
1]!
1x!
1o!
0`!
0[!
1&!
1'!
1<
1;
0(!
0#!
0=
08
#930000
0A
0j
09!
0:!
#940000
1A
1j
19!
1:!
1m!
1<!
0s!
0v!
0=!
0>!
0@!
0;!
1F!
0t!
1^!
1%!
1:
#950000
0A
0j
09!
0:!
#960000
1A
0U
0T
1j
0f
0e
08!
07!
19!
1:!
1n!
1u!
0m!
0<!
0l!
0k!
0?!
0j!
0C!
0B!
0I!
0K!
0L!
1[!
1_!
1`!
1a!
1s!
1v!
1r!
1q!
1z!
1p!
1y!
02!
01!
0D!
0E!
1;!
0F!
1L!
0K
0J
1t!
1"!
1#!
1$!
1(!
0k
0l
0m
0q
0G!
1=
19
18
17
0(
0$
0#
0"
1k
0o
0p
0'
0&
1"
0n
0%
#970000
0A
0j
09!
0:!
#980000
1A
1j
19!
1:!
1m!
1<!
0s!
0v!
1=!
1A!
0;!
1F!
1H!
1J!
0x!
0t!
0w!
0o!
1K!
1I!
1G!
1B!
1q
1n
1m
1l
1(
1%
1$
1#
#990000
0A
0j
09!
0:!
