aulas/aula02/simulation/qsim/Aula02.msim.vcd
$comment
	File created using the following command:
		vcd file Aula02.msim.vcd -direction
$end
$date
	Wed Aug 24 11:40:24 2022
$end
$version
	ModelSim Version 10.5b
$end
$timescale
	1ps
$end

$scope module aula02_vhd_vec_tst $end
$var wire 1 ! CLOCK_50 $end
$var wire 1 " KEY [3] $end
$var wire 1 # KEY [2] $end
$var wire 1 $ KEY [1] $end
$var wire 1 % KEY [0] $end
$var wire 1 & LEDR [9] $end
$var wire 1 ' LEDR [8] $end
$var wire 1 ( LEDR [7] $end
$var wire 1 ) LEDR [6] $end
$var wire 1 * LEDR [5] $end
$var wire 1 + LEDR [4] $end
$var wire 1 , LEDR [3] $end
$var wire 1 - LEDR [2] $end
$var wire 1 . LEDR [1] $end
$var wire 1 / LEDR [0] $end
$var wire 1 0 PC_OUT [2] $end
$var wire 1 1 PC_OUT [1] $end
$var wire 1 2 PC_OUT [0] $end
$var wire 1 3 SW [9] $end
$var wire 1 4 SW [8] $end
$var wire 1 5 SW [7] $end
$var wire 1 6 SW [6] $end
$var wire 1 7 SW [5] $end
$var wire 1 8 SW [4] $end
$var wire 1 9 SW [3] $end
$var wire 1 : SW [2] $end
$var wire 1 ; SW [1] $end
$var wire 1 < SW [0] $end

$scope module i1 $end
$var wire 1 = gnd $end
$var wire 1 > vcc $end
$var wire 1 ? unknown $end
$var wire 1 @ devoe $end
$var wire 1 A devclrn $end
$var wire 1 B devpor $end
$var wire 1 C ww_devoe $end
$var wire 1 D ww_devclrn $end
$var wire 1 E ww_devpor $end
$var wire 1 F ww_CLOCK_50 $end
$var wire 1 G ww_KEY [3] $end
$var wire 1 H ww_KEY [2] $end
$var wire 1 I ww_KEY [1] $end
$var wire 1 J ww_KEY [0] $end
$var wire 1 K ww_SW [9] $end
$var wire 1 L ww_SW [8] $end
$var wire 1 M ww_SW [7] $end
$var wire 1 N ww_SW [6] $end
$var wire 1 O ww_SW [5] $end
$var wire 1 P ww_SW [4] $end
$var wire 1 Q ww_SW [3] $end
$var wire 1 R ww_SW [2] $end
$var wire 1 S ww_SW [1] $end
$var wire 1 T ww_SW [0] $end
$var wire 1 U ww_PC_OUT [2] $end
$var wire 1 V ww_PC_OUT [1] $end
$var wire 1 W ww_PC_OUT [0] $end
$var wire 1 X ww_LEDR [9] $end
$var wire 1 Y ww_LEDR [8] $end
$var wire 1 Z ww_LEDR [7] $end
$var wire 1 [ ww_LEDR [6] $end
$var wire 1 \ ww_LEDR [5] $end
$var wire 1 ] ww_LEDR [4] $end
$var wire 1 ^ ww_LEDR [3] $end
$var wire 1 _ ww_LEDR [2] $end
$var wire 1 ` ww_LEDR [1] $end
$var wire 1 a ww_LEDR [0] $end
$var wire 1 b \CLOCK_50~input_o\ $end
$var wire 1 c \KEY[1]~input_o\ $end
$var wire 1 d \KEY[2]~input_o\ $end
$var wire 1 e \KEY[3]~input_o\ $end
$var wire 1 f \SW[4]~input_o\ $end
$var wire 1 g \SW[5]~input_o\ $end
$var wire 1 h \~QUARTUS_CREATED_GND~I_combout\ $end
$var wire 1 i \KEY[0]~input_o\ $end
$var wire 1 j \KEY[0]~inputCLKENA0_outclk\ $end
$var wire 1 k \PC|DOUT[0]~2_combout\ $end
$var wire 1 l \PC|DOUT[1]~0_combout\ $end
$var wire 1 m \PC|DOUT[1]~DUPLICATE_q\ $end
$var wire 1 n \PC|DOUT[2]~1_combout\ $end
$var wire 1 o \PC|DOUT[2]~DUPLICATE_q\ $end
$var wire 1 p \SW[6]~input_o\ $end
$var wire 1 q \ULA1|Add0~18_cout\ $end
$var wire 1 r \ULA1|Add0~1_sumout\ $end
$var wire 1 s \SW[0]~input_o\ $end
$var wire 1 t \ROM1|memROM~0_combout\ $end
$var wire 1 u \ROM1|memROM~2_combout\ $end
$var wire 1 v \ROM1|memROM~1_combout\ $end
$var wire 1 w \SW[7]~input_o\ $end
$var wire 1 x \ULA1|Add0~2\ $end
$var wire 1 y \ULA1|Add0~5_sumout\ $end
$var wire 1 z \SW[1]~input_o\ $end
$var wire 1 { \SW[8]~input_o\ $end
$var wire 1 | \ULA1|Add0~6\ $end
$var wire 1 } \ULA1|Add0~9_sumout\ $end
$var wire 1 ~ \SW[2]~input_o\ $end
$var wire 1 !! \SW[9]~input_o\ $end
$var wire 1 "! \ULA1|Add0~10\ $end
$var wire 1 #! \ULA1|Add0~13_sumout\ $end
$var wire 1 $! \SW[3]~input_o\ $end
$var wire 1 %! \REGA|DOUT\ [3] $end
$var wire 1 &! \REGA|DOUT\ [2] $end
$var wire 1 '! \REGA|DOUT\ [1] $end
$var wire 1 (! \REGA|DOUT\ [0] $end
$var wire 1 )! \PC|DOUT\ [2] $end
$var wire 1 *! \PC|DOUT\ [1] $end
$var wire 1 +! \PC|DOUT\ [0] $end
$var wire 1 ,! \REGA|ALT_INV_DOUT\ [3] $end
$var wire 1 -! \REGA|ALT_INV_DOUT\ [2] $end
$var wire 1 .! \REGA|ALT_INV_DOUT\ [1] $end
$var wire 1 /! \REGA|ALT_INV_DOUT\ [0] $end
$var wire 1 0! \PC|ALT_INV_DOUT[2]~DUPLICATE_q\ $end
$var wire 1 1! \ALT_INV_SW[9]~input_o\ $end
$var wire 1 2! \ALT_INV_SW[8]~input_o\ $end
$var wire 1 3! \ALT_INV_SW[7]~input_o\ $end
$var wire 1 4! \ALT_INV_SW[6]~input_o\ $end
$var wire 1 5! \ROM1|ALT_INV_memROM~2_combout\ $end
$var wire 1 6! \ROM1|ALT_INV_memROM~0_combout\ $end
$var wire 1 7! \PC|ALT_INV_DOUT\ [2] $end
$var wire 1 8! \PC|ALT_INV_DOUT\ [1] $end
$var wire 1 9! \PC|ALT_INV_DOUT\ [0] $end
$upscope $end
$upscope $end
$enddefinitions $end
#0
$dumpvars
x!
0=
1>
x?
1@
1A
1B
1C
1D
1E
xF
xb
xc
xd
xe
xf
xg
xh
1i
1j
1k
0l
0m
0n
0o
0p
0q
0r
xs
1t
1u
0v
0w
0x
0y
xz
0{
0|
0}
x~
0!!
0"!
0#!
x$!
10!
11!
12!
13!
14!
05!
06!
x"
x#
x$
1%
03
04
05
06
x7
x8
x9
x:
x;
x<
xG
xH
xI
1J
0K
0L
0M
0N
xO
xP
xQ
xR
xS
xT
0U
0V
0W
1X
0Y
1Z
1[
0\
0]
0^
0_
0`
0a
0%!
0&!
0'!
0(!
0)!
0*!
0+!
1,!
1-!
1.!
1/!
17!
18!
19!
1&
0'
1(
1)
0*
0+
0,
0-
0.
0/
00
01
02
$end
#10000
0%
0J
0i
0j
#20000
1%
15
1J
1M
1w
1i
1j
03!
1y
1+!
09!
0k
1l
0t
1v
16!
1W
12
1Y
0Z
0(
1'
#30000
0%
0J
0i
0j
#40000
1%
1J
1i
1j
0+!
1*!
1m
1'!
0.!
08!
19!
1k
0y
1|
1`
1V
0W
1}
1.
02
11
#50000
0%
0J
0i
0j
#60000
1%
1J
1i
1j
1+!
0'!
1&!
0-!
1.!
09!
0k
0l
1n
1y
0|
0}
1"!
1_
0`
1W
1#!
1}
0"!
0.
1-
12
0#!
#70000
0%
0J
0i
0j
#80000
1%
05
16
1J
1N
0M
0w
1p
1i
1j
04!
13!
0y
1r
0+!
0*!
0m
1)!
1o
1'!
0.!
00!
07!
18!
19!
1k
0r
0}
1"!
1q
1#!
1|
1`
1U
0V
0W
1}
1r
0#!
0[
1.
02
01
10
0)
#90000
0%
0J
0i
0j
#100000
1%
06
1J
0N
0p
1i
1j
14!
0r
1x
1+!
1(!
0'!
1.!
0/!
09!
1y
0k
1l
0u
0v
1r
0y
15!
0`
1a
1W
1/
0.
12
0Y
0X
0'
0&
#110000
0%
0J
0i
0j
#120000
1%
1J
1i
1j
0+!
1*!
1m
08!
19!
1k
1V
0W
02
11
#130000
0%
0J
0i
0j
#140000
1%
1J
1i
1j
1+!
09!
0k
0l
0n
1W
12
#150000
0%
0J
0i
0j
